NewResults
…
dfcomp %>% group_by(species, type) %>% summarize(mean = mean(test_auc))

`summarise()` has grouped output by 'species'. You can override using the
`.groups` argument.

# A tibble: 39 × 3
# Groups:   species [14]
   species type      mean
   <chr>   <chr>    <dbl>
 1 CAMPFRA EFN      0.841
 2 CAMPFRA clim     0.815
 3 CAMPOC  EFN      0.837
 4 CAMPOC  EFN-only 0.837
 5 CAMPOC  clim     0.809
 6 CAMPSEM EFN      0.818
 7 CAMPSEM EFN-only 0.818
 8 CAMPSEM clim     0.828
 9 CREMD   EFN      0.789
10 CREMD   EFN-only 0.826
# ℹ 29 more rows
…
